RangeStart,RangeEnd,IssuerCountry,Currency,Scheme,AcceptanceNetworkName,ChargeType
506700,506700,BR,,ELO,ELO,Credit
506701,506701,BR,,ELO,ELO,Credit
506702,506702,BR,,ELO,ELO,Credit
506704,506704,BR,,ELO,ELO,Credit
506705,506705,BR,,ELO,ELO,Credit
506706,506706,BR,,ELO,ELO,Credit
506710,506710,BR,,ELO,ELO,Credit
506711,506711,BR,,ELO,ELO,Credit
506712,506712,BR,,ELO,ELO,Credit
506714,506714,BR,,ELO,ELO,Credit
506716,506716,BR,,ELO,ELO,Credit
506737,506737,BR,,ELO,ELO,Credit
506760,506760,BR,,ELO,ELO,Credit
506761,506761,BR,,ELO,ELO,Credit
506762,506762,BR,,ELO,ELO,Credit
506763,506763,BR,,ELO,ELO,Credit
506764,506764,BR,,ELO,ELO,Credit
506765,506765,BR,,ELO,ELO,Credit
506770,506770,BR,,ELO,ELO,Credit
506771,506771,BR,,ELO,ELO,Credit
506772,506772,BR,,ELO,ELO,Credit
506773,506773,BR,,ELO,ELO,Credit
509811,509902,BR,,ELO,ELO,Credit
506749,506749,BR,,ELO,ELO,Credit
509987,509999,BR,,ELO,ELO,Credit
506717,506717,BR,,ELO,ELO,Credit
506718,506718,BR,,ELO,ELO,Credit
506733,506733,BR,,ELO,ELO,Credit
506739,506739,BR,,ELO,ELO,Credit
506741,506741,BR,,ELO,ELO,Credit
506742,506742,BR,,ELO,ELO,Credit
506743,506743,BR,,ELO,ELO,Credit
506774,506774,BR,,ELO,ELO,Credit
506776,506776,BR,,ELO,ELO,Credit
506778,506778,BR,,ELO,ELO,Credit
509004,509004,BR,,ELO,ELO,Credit
509005,509005,BR,,ELO,ELO,Credit
509006,509006,BR,,ELO,ELO,Credit
509007,509007,BR,,ELO,ELO,Credit
509008,509008,BR,,ELO,ELO,Credit
509009,509009,BR,,ELO,ELO,Credit
509013,509013,BR,,ELO,ELO,Credit
509020,509020,BR,,ELO,ELO,Credit
509021,509021,BR,,ELO,ELO,Credit
509022,509022,BR,,ELO,ELO,Credit
509023,509023,BR,,ELO,ELO,Credit
509024,509024,BR,,ELO,ELO,Credit
509025,509025,BR,,ELO,ELO,Credit
509026,509026,BR,,ELO,ELO,Credit
509027,509027,BR,,ELO,ELO,Credit
509028,509028,BR,,ELO,ELO,Credit
509029,509029,BR,,ELO,ELO,Credit
509031,509031,BR,,ELO,ELO,Credit
509033,509033,BR,,ELO,ELO,Credit
509035,509035,BR,,ELO,ELO,Credit
509036,509036,BR,,ELO,ELO,Credit
509037,509037,BR,,ELO,ELO,Credit
509038,509038,BR,,ELO,ELO,Credit
509039,509039,BR,,ELO,ELO,Credit
509040,509040,BR,,ELO,ELO,Credit
509041,509041,BR,,ELO,ELO,Credit
509042,509042,BR,,ELO,ELO,Credit
509043,509043,BR,,ELO,ELO,Credit
509044,509044,BR,,ELO,ELO,Credit
509045,509045,BR,,ELO,ELO,Credit
509046,509046,BR,,ELO,ELO,Credit
509047,509047,BR,,ELO,ELO,Credit
509048,509048,BR,,ELO,ELO,Credit
509049,509049,BR,,ELO,ELO,Credit
509050,509050,BR,,ELO,ELO,Credit
509051,509051,BR,,ELO,ELO,Credit
509052,509052,BR,,ELO,ELO,Credit
509053,509053,BR,,ELO,ELO,Credit
509064,509064,BR,,ELO,ELO,Credit
509077,509077,BR,,ELO,ELO,Credit
509078,509078,BR,,ELO,ELO,Credit
509079,509079,BR,,ELO,ELO,Credit
509080,509080,BR,,ELO,ELO,Credit
636297,636297,BR,,ELO,ELO,Credit
509964,509986,BR,,ELO,ELO,Credit
451416,451416,BR,,ELO,ELO,Debit
506722,506722,BR,,ELO,ELO,Debit
506734,506734,BR,,ELO,ELO,Debit
506735,506735,BR,,ELO,ELO,Debit
506736,506736,BR,,ELO,ELO,Debit
509003,509003,BR,,ELO,ELO,Debit
509010,509010,BR,,ELO,ELO,Debit
509011,509011,BR,,ELO,ELO,Debit
509030,509030,BR,,ELO,ELO,Debit
509065,509065,BR,,ELO,ELO,Debit
509073,509073,BR,,ELO,ELO,Debit
627780,627780,BR,,ELO,ELO,Debit
457393,457393,BR,,ELO,ELO,Credit
504175,504175,BR,,ELO,ELO,Credit
506720,506720,BR,,ELO,ELO,Credit
506721,506721,BR,,ELO,ELO,Credit
506724,506724,BR,,ELO,ELO,Credit
506725,506725,BR,,ELO,ELO,Credit
506726,506726,BR,,ELO,ELO,Credit
506727,506727,BR,,ELO,ELO,Credit
506728,506728,BR,,ELO,ELO,Credit
506729,506729,BR,,ELO,ELO,Credit
506730,506730,BR,,ELO,ELO,Credit
506731,506731,BR,,ELO,ELO,Credit
506732,506732,BR,,ELO,ELO,Credit
506740,506740,BR,,ELO,ELO,Credit
506744,506744,BR,,ELO,ELO,Credit
506745,506745,BR,,ELO,ELO,Credit
506746,506746,BR,,ELO,ELO,Credit
506747,506747,BR,,ELO,ELO,Credit
506748,506748,BR,,ELO,ELO,Credit
506753,506753,BR,,ELO,ELO,Credit
506775,506775,BR,,ELO,ELO,Credit
506777,506777,BR,,ELO,ELO,Credit
509000,509000,BR,,ELO,ELO,Credit
509001,509001,BR,,ELO,ELO,Credit
509002,509002,BR,,ELO,ELO,Credit
509066,509066,BR,,ELO,ELO,Credit
509067,509067,BR,,ELO,ELO,Credit
509068,509068,BR,,ELO,ELO,Credit
509069,509069,BR,,ELO,ELO,Credit
509072,509072,BR,,ELO,ELO,Credit
509074,509074,BR,,ELO,ELO,Credit
509076,509076,BR,,ELO,ELO,Credit
509081,509081,BR,,ELO,ELO,Credit
509082,509082,BR,,ELO,ELO,Credit
509083,509083,BR,,ELO,ELO,Credit
509085,509810,BR,,ELO,ELO,Credit
636368,636368,BR,,ELO,ELO,Credit
506707,506707,BR,,ELO,ELO,Credit
506708,506708,BR,,ELO,ELO,Credit
506715,506715,BR,,ELO,ELO,Credit
506719,506719,BR,,ELO,ELO,Credit
506750,506750,BR,,ELO,ELO,Credit
506751,506751,BR,,ELO,ELO,Credit
506752,506752,BR,,ELO,ELO,Credit
509012,509012,BR,,ELO,ELO,Credit
509014,509014,BR,,ELO,ELO,Credit
509015,509015,BR,,ELO,ELO,Credit
509016,509016,BR,,ELO,ELO,Credit
509017,509017,BR,,ELO,ELO,Credit
509018,509018,BR,,ELO,ELO,Credit
509019,509019,BR,,ELO,ELO,Credit
509032,509032,BR,,ELO,ELO,Credit
509034,509034,BR,,ELO,ELO,Credit
509054,509054,BR,,ELO,ELO,Credit
509055,509055,BR,,ELO,ELO,Credit
509056,509056,BR,,ELO,ELO,Credit
509057,509057,BR,,ELO,ELO,Credit
509058,509058,BR,,ELO,ELO,Credit
509059,509059,BR,,ELO,ELO,Credit
509060,509060,BR,,ELO,ELO,Credit
509061,509061,BR,,ELO,ELO,Credit
509062,509062,BR,,ELO,ELO,Credit
509063,509063,BR,,ELO,ELO,Credit
509070,509070,BR,,ELO,ELO,Credit
509071,509071,BR,,ELO,ELO,Credit
509075,509075,BR,,ELO,ELO,Credit
509084,509084,BR,,ELO,ELO,Credit
506699,506699,BR,,ELO,ELO,Credit
506703,506703,BR,,ELO,ELO,Credit
506709,506709,BR,,ELO,ELO,Credit
506713,506713,BR,,ELO,ELO,Credit
506723,506723,BR,,ELO,ELO,Credit
506738,506738,BR,,ELO,ELO,Credit
506754,506754,BR,,ELO,ELO,Credit
506755,506755,BR,,ELO,ELO,Credit
506756,506756,BR,,ELO,ELO,Credit
506757,506757,BR,,ELO,ELO,Credit
506758,506758,BR,,ELO,ELO,Credit
506759,506759,BR,,ELO,ELO,Credit
506766,506766,BR,,ELO,ELO,Credit
506767,506767,BR,,ELO,ELO,Credit
506768,506768,BR,,ELO,ELO,Credit
506769,506769,BR,,ELO,ELO,Credit
509903,509963,BR,,ELO,ELO,Credit
650901,650920,BR,,ELO,ELO,Credit
650031,650033,BR,,ELO,ELO,Debit
650035,650051,BR,,ELO,ELO,Debit
650485,650538,BR,,ELO,ELO,Credit
650541,650598,BR,,ELO,ELO,Credit
650700,650718,BR,,ELO,ELO,Credit
650720,650727,BR,,ELO,ELO,Credit
651652,651679,BR,,ELO,ELO,Credit
655000,655019,BR,,ELO,ELO,Credit
655021,655058,BR,,ELO,ELO,Credit
650405,650439,BR,,ELO,ELO,Credit
650921,650978,BR,,ELO,ELO,Credit
